{
  "project_info": {
    "project_number": "126400792759",
    "project_id": "yugal2-a65c7",
    "storage_bucket": "yugal2-a65c7.appspot.com"
  },
  "client": [
    {
      "client_info": {
        "mobilesdk_app_id": "1:126400792759:android:6aac86990431b95b18a532",
        "android_client_info": {
          "package_name": "com.cobra.yugal2"
        }
      },
      "oauth_client": [
        {
          "client_id": "126400792759-r3n8t09dv104fb7vlb9jr74nckilr4hv.apps.googleusercontent.com",
          "client_type": 1,
          "android_info": {
            "package_name": "com.cobra.yugal2",
            "certificate_hash": "e409253d0deca0942a8506a05bfda7f7ed59ecba"
          }
        },
        {
          "client_id": "126400792759-hibpn8kccv9p8le44tu8gv3mkur93mq7.apps.googleusercontent.com",
          "client_type": 3
        }
      ],
      "api_key": [
        {
          "current_key": "AIzaSyC_pXgvpfs6PHFbzrdNryFiUoJJnXqOY-8"
        }
      ],
      "services": {
        "appinvite_service": {
          "other_platform_oauth_client": [
            {
              "client_id": "126400792759-hibpn8kccv9p8le44tu8gv3mkur93mq7.apps.googleusercontent.com",
              "client_type": 3
            }
          ]
        }
      }
    }
  ],
  "configuration_version": "1"
}